<?xml version="1.0" encoding="UTF-8"?>
<svg width="359px" height="312px" viewBox="0 0 359 312" version="1.1" xmlns="http://www.w3.org/2000/svg" xmlns:xlink="http://www.w3.org/1999/xlink">
    <title>Group</title>
    <g id="Page-1" stroke="none" stroke-width="1" fill="none" fill-rule="evenodd">
        <g id="11a---Success-Payment" transform="translate(-182.000000, -278.000000)">
            <g id="Group" transform="translate(182.000000, 278.000000)">
                <path d="M175.844234,0.321842261 C65.6114471,9.51636699 -30.7150793,113.321842 9.19818393,212.321842 C49.1114471,311.321842 225.611447,349.321842 324.611447,265.321842 C423.611447,181.321842 286.07702,-8.87268246 175.844234,0.321842261 Z" id="Path-3" fill="#EEF8EE"></path>
                <g id="成功" transform="translate(118.000000, 97.000000)">
                    <path d="M60,0 C26.8588235,0 0,26.8588235 0,60 C0,93.1411765 26.8588235,120 60,120 C93.1411765,120 120,93.1411765 120,60 C120,26.8588235 93.1411765,0 60,0 Z M89.2823529,45.4705882 L53.5529412,81.1882353 C52.6352941,82.1058824 51.4352941,82.5647059 50.2235294,82.5647059 L49.8235294,82.5647059 C48.6235294,82.5647059 47.4117647,82.1058824 46.4941176,81.1882353 L30.7176471,65.4 C28.8823529,63.5647059 28.8823529,60.5882353 30.7176471,58.7411765 C32.5529412,56.9058824 35.5294118,56.9058824 37.3764706,58.7411765 L50.0352941,71.4 L82.6235294,38.8117647 C84.4588235,36.9764706 87.4352941,36.9764706 89.2823529,38.8117647 C91.1294118,40.6470588 91.1176471,43.6352941 89.2823529,45.4705882 L89.2823529,45.4705882 Z" id="Shape" fill="#43AC43" fill-rule="nonzero"></path>
                    <ellipse id="Oval" fill="#000000" opacity="0.1" cx="60" cy="136" rx="30" ry="8"></ellipse>
                </g>
            </g>
        </g>
    </g>
</svg>