<?xml version="1.0" encoding="UTF-8"?>
<svg width="187px" height="41px" viewBox="0 0 187 41" version="1.1" xmlns="http://www.w3.org/2000/svg" xmlns:xlink="http://www.w3.org/1999/xlink">
    <title>Group 18 Copy</title>
    <defs>
        <polygon id="path-1" points="0 0.184410002 40.6465835 0.184410002 40.6465835 39.4104695 0 39.4104695"></polygon>
        <polygon id="path-3" points="0.146014296 0.109319087 25.5508293 0.109319087 25.5508293 33.4800004 0.146014296 33.4800004"></polygon>
    </defs>
    <g id="Page-1" stroke="none" stroke-width="1" fill="none" fill-rule="evenodd">
        <g id="Saldo-Pembayaran-Anda" transform="translate(-109.000000, -324.000000)">
            <g id="Group-17" transform="translate(109.000000, 324.000000)">
                <g id="Group-3" transform="translate(0.000000, 0.085590)">
                    <mask id="mask-2" fill="white">
                        <use xlink:href="#path-1"></use>
                    </mask>
                    <g id="Clip-2"></g>
                    <path d="M40.6465835,19.7973993 C40.6465835,30.6295294 31.5475834,39.4104695 20.3234133,39.4104695 C9.09924312,39.4104695 -2.70000004e-05,30.6295294 -2.70000004e-05,19.7973993 C-2.70000004e-05,8.96526912 9.09924312,0.184329002 20.3234133,0.184329002 C31.5475834,0.184329002 40.6465835,8.96526912 40.6465835,19.7973993 Z" id="Fill-1" fill="#00ABD6" mask="url(#mask-2)"></path>
                </g>
                <path d="M79.3621811,17.6764952 L79.3621811,17.6764952 C79.3621811,11.1389851 84.7141211,6.15370508 92.1318312,6.15370508 C99.5500813,6.15370508 104.901751,11.1713851 104.901751,17.6764952 C104.901751,24.1816053 99.6008413,29.2154854 92.1318312,29.2154854 C84.6630911,29.2154854 79.3621811,24.1978053 79.3621811,17.6764952 L79.3621811,17.6764952 Z M98.5338013,17.6764952 C98.5616113,14.2377752 95.6955613,11.4276152 92.1318312,11.4008852 C88.5683712,11.3736152 85.6566911,14.1397652 85.6288811,17.5787552 C85.6010711,21.0180153 88.4671212,23.8276353 92.0308512,23.8546353 C92.0646012,23.8549053 92.0980812,23.8549053 92.1318312,23.8546353 C95.5130413,24.0295953 98.4009613,21.5261553 98.5824013,18.2632052 C98.5932013,18.0677252 98.5940113,17.8722452 98.5845613,17.6764952 L98.5338013,17.6764952 Z" id="Fill-4" fill="#000000"></path>
                <g id="Group-8" transform="translate(49.950001, 6.025590)">
                    <mask id="mask-4" fill="white">
                        <use xlink:href="#path-3"></use>
                    </mask>
                    <g id="Clip-7"></g>
                    <path d="M19.5047193,0.111834001 L19.5047193,0.111834001 L19.5047193,2.69411404 C17.4435392,0.887814012 14.7130292,-0.0374760005 11.9341892,0.128304002 C5.36319907,0.186894002 0.0860490011,5.37521407 0.146529002,11.7161642 C0.207279003,18.0576542 5.58324907,23.1506643 12.1542392,23.0918043 C14.8596392,23.2087143 17.4929492,22.2315843 19.4199393,20.3953143 L19.4199393,22.6014843 C19.4199393,25.5925443 16.7439692,27.7827844 13.2212792,27.7827844 C10.5309991,27.9701644 7.8809491,27.0702544 5.90481908,25.2985143 L1.78947902,29.1230644 C4.87503906,32.0458144 9.06948912,33.6177544 13.3905692,33.4706044 C20.6055093,33.4706044 25.5508293,28.7960944 25.5508293,22.5690843 L25.5508293,0.111834001 L19.5047193,0.111834001 Z M19.2506493,12.8439542 C19.2506493,15.5409842 16.4053892,17.7471542 12.7979192,17.7471542 C9.48501913,18.0706142 6.52770909,15.7407842 6.19290908,12.5434442 C6.15915908,12.2197142 6.15321908,11.8938242 6.17589908,11.5692842 C6.17589908,8.00609411 8.88561912,5.55449407 13.0519892,5.55449407 C16.4391392,5.55449407 19.2506493,7.7936041 19.2506493,10.3270141 L19.2506493,12.8439542 Z" id="Fill-6" fill="#000000" mask="url(#mask-4)"></path>
                </g>
                <path d="M121.092599,11.5801382 L121.092599,11.5801382 C117.705449,11.5801382 114.944699,13.8521882 114.944699,16.3199882 L114.944699,19.0820883 C114.944699,21.7135083 117.671429,23.8872783 121.126619,23.8872783 C124.648229,24.0625083 127.650359,21.4497183 127.831529,18.0509582 C128.013239,14.6524682 125.305679,11.7553682 121.784069,11.5801382 C121.565099,11.5693382 121.345589,11.5693382 121.126619,11.5801382 L121.092599,11.5801382 Z M108.627778,6.80761809 L114.690899,6.80761809 L114.690899,8.73622812 L114.775679,8.73622812 C116.763149,6.98743809 119.388089,6.07078808 122.075129,6.18634808 C128.673929,6.42637809 133.822019,11.7834482 133.573619,18.1516682 C133.338179,24.1834683 128.325359,29.0213284 122.075129,29.2483984 C119.507969,29.3053684 117.002099,28.4899684 114.995729,26.9436784 L114.995729,37.8619385 L108.678538,37.8619385 L108.627778,6.80761809 Z" id="Fill-9" fill="#000000"></path>
                <path d="M151.594688,17.8726502 L151.594688,17.8726502 L151.510178,17.8726502 C150.951008,18.6570002 149.816468,19.1149203 146.683118,19.6379103 C142.974128,20.3080503 141.602258,21.0108603 141.602258,22.2858003 C141.602258,23.5604703 142.703048,24.1817403 145.091198,24.1817403 C148.732148,24.1817403 151.543928,22.5471603 151.543928,20.4714003 L151.594688,17.8726502 Z M145.700858,15.5682002 C149.850218,15.0287402 151.086548,14.4568802 151.086548,13.3452902 C151.086548,11.9070002 149.511368,11.0408401 147.072728,11.0408401 C144.443738,10.8332101 142.050188,12.5047802 141.432968,14.9798702 L135.471368,13.7864702 C136.318088,9.34092012 141.060368,6.17004008 146.903438,6.17004008 C153.508448,6.17004008 157.607048,9.43920013 157.607048,14.7347102 L157.607048,28.6108204 L151.933268,28.6108204 L151.933268,26.1918903 L151.848488,26.1918903 C149.923388,28.2830404 147.101888,29.3938204 144.210458,29.1991504 C139.214108,29.1991504 135.742448,26.5677304 135.742448,22.6616403 C135.742448,18.7555502 138.587708,16.5161702 145.700858,15.5682002 L145.700858,15.5682002 Z" id="Fill-11" fill="#000000"></path>
                <polygon id="Fill-13" fill="#000000" points="169.038821 27.3851554 158.589281 6.80764509 165.549881 6.80764509 172.408961 21.0598653 172.510751 21.0598653 179.285051 6.80764509 186.279671 6.80764509 170.630741 37.8619655 163.670141 37.8619655"></polygon>
                <path d="M27.9394384,22.0220643 L27.9394384,22.0220643 L27.9394384,22.7410743 C27.9394384,23.1925143 27.5603584,23.5583643 27.0927184,23.5583643 C26.6248084,23.5583643 26.2457283,23.1925143 26.2457283,22.7410743 L26.2457283,22.0220643 C25.9722183,21.7914843 25.8175083,21.4569543 25.8223683,21.1064943 C25.8223683,20.4298743 26.3912583,19.8806943 27.0927184,19.8806943 C27.7941784,19.8806943 28.3627984,20.4298743 28.3627984,21.1064943 C28.3590184,21.4550643 28.2056584,21.7866243 27.9394384,22.0220643 M32.1735784,19.2761643 C32.0185984,16.7800142 29.8167484,14.8659842 27.2279884,14.9774942 L14.3905682,14.9774942 C13.9226582,14.9774942 13.5438482,14.6119142 13.5438482,14.1604742 C13.5438482,13.7090342 13.9226582,13.3431842 14.3905682,13.3431842 L27.3975484,13.3431842 C27.3214084,11.6513642 26.1247683,10.1993041 24.4334883,9.74732413 C20.6416083,9.09392412 16.7598182,9.09392412 12.9679382,9.74732413 C10.8127981,10.2587041 9.20089812,11.9894042 8.90308812,14.1113342 C8.31043811,17.9582942 8.31043811,21.8689743 8.90308812,25.7159343 C9.35722812,27.9612544 11.2059181,29.7000544 13.5438482,30.0796744 C18.2445482,30.6518044 23.0014083,30.6518044 27.7023784,30.0796744 C29.7964984,29.6700844 31.3813984,28.0090444 31.6314184,25.9608243 C32.0617984,23.7581643 32.2432384,21.5168943 32.1735784,19.2761643" id="Fill-15" fill="#FFFFFF"></path>
            </g>
        </g>
    </g>
</svg>