<?xml version="1.0" encoding="UTF-8"?>
<svg width="544px" height="634px" viewBox="0 0 544 634" version="1.1" xmlns="http://www.w3.org/2000/svg" xmlns:xlink="http://www.w3.org/1999/xlink">
    <title>Rectangle</title>
    <g id="Page-1" stroke="none" stroke-width="1" fill="none" fill-rule="evenodd">
        <g id="Gotongroyong-tutup" transform="translate(-88.000000, -972.000000)" fill="#9CDAA0">
            <rect id="Rectangle" x="88" y="972" width="544" height="634" rx="272"></rect>
        </g>
    </g>
</svg>