<?xml version="1.0" encoding="UTF-8"?>
<svg width="294px" height="378px" viewBox="0 0 294 378" version="1.1" xmlns="http://www.w3.org/2000/svg" xmlns:xlink="http://www.w3.org/1999/xlink">
    <title>Group</title>
    <defs>
        <polygon id="path-1" points="0.457538051 0.1525 117.055464 0.1525 117.055464 129.583358 0.457538051 129.583358"></polygon>
    </defs>
    <g id="Page-1" stroke="none" stroke-width="1" fill="none" fill-rule="evenodd">
        <g id="Gotongroyong-tutup-Copy" transform="translate(-213.000000, -373.000000)">
            <g id="Group" transform="translate(213.000000, 373.000000)">
                <path d="M147,0 C222.110726,-1.37976165e-14 283,60.889274 283,136 L283,328 L11,328 L11,136 C11,60.889274 71.889274,1.37976165e-14 147,0 Z" id="Combined-Shape" fill="#9CDAA0"></path>
                <g id="Group-102" transform="translate(0.000000, 1.000000)">
                    <path d="M106.3488,365.46255 C106.3788,365.48255 106.4188,365.50255 106.4488,365.52755 C105.7088,365.28755 66.1288,352.32255 51.2738,311.80255 C43.2788,289.99255 48.4938,285.92755 58.5188,279.68255 C60.1388,300.80255 66.7438,320.13255 76.8738,335.90255 L76.8738,335.90755 C82.9738,345.40755 90.3538,353.61255 98.6988,360.13255 C100.4388,361.49255 102.2238,362.77755 104.0438,363.98755 C104.8038,364.49255 105.5738,364.98255 106.3488,365.46255" id="Fill-1" fill="#E0EFDF"></path>
                    <path d="M198.01385,355.43255 C209.66385,344.70755 219.06885,330.48755 225.18385,314.04755 C227.68385,307.33755 229.63385,300.25755 230.96385,292.88755 L230.96385,292.88255 C232.32885,285.35255 233.04885,277.53255 233.04885,269.49755 C233.04885,263.66755 232.66885,257.94255 231.93885,252.36755 C234.89885,253.86255 238.14885,255.42255 241.76385,257.11755 C269.50885,270.14255 230.01385,329.72755 198.01385,355.43255" id="Fill-3" fill="#E0EFDF"></path>
                    <path d="M233.049,269.49745 C233.049,277.53245 232.329,285.35245 230.964,292.88245 L230.964,292.88745 C229.634,300.25745 227.684,307.33745 225.184,314.04745 C219.069,330.48745 209.664,344.70745 198.014,355.43245 L106.459,365.53245 C106.454,365.53245 106.454,365.52745 106.449,365.52745 C106.419,365.50245 106.379,365.48245 106.349,365.46245 C105.574,364.98245 104.804,364.49245 104.044,363.98745 C102.224,362.77745 100.439,361.49245 98.699,360.13245 C90.354,353.61245 82.974,345.40745 76.874,335.90745 L76.874,335.90245 C66.744,320.13245 60.139,300.80245 58.519,279.68245 C67.294,274.21745 79.764,267.08245 90.269,244.90245 C112.769,197.39745 163.899,173.36245 185.959,206.37745 C205.139,235.08745 212.179,242.38745 231.939,252.36745 C232.669,257.94245 233.049,263.66745 233.049,269.49745" id="Fill-5" fill="#C6E2BB"></path>
                    <path d="M106.4589,365.5324 L198.0139,355.4324 C183.4039,368.8824 165.2539,376.8474 145.5889,376.8474 C132.2489,376.8474 119.6039,373.1824 108.2889,366.6224 C107.6739,366.2674 107.0639,365.9024 106.4589,365.5324" id="Fill-7" fill="#A7D5A1"></path>
                    <path d="M231.9389,252.3676 C212.1789,242.3876 205.1389,235.0876 185.9589,206.3776 C163.8989,173.3626 112.7689,197.3976 90.2689,244.9026 C79.7639,267.0826 67.2939,274.2176 58.5189,279.6826 C58.2589,276.3326 58.1289,272.9326 58.1289,269.4976 C58.1289,210.2126 97.2889,162.1476 145.5889,162.1476 C189.1389,162.1476 225.2589,201.2226 231.9389,252.3676" id="Fill-9" fill="#A7D5A1"></path>
                    <path d="M79.92425,350.6215 C79.92425,350.6215 63.12825,333.138 60.66675,319.4715 C58.20575,305.805 69.70575,305.4535 72.53875,309.1295 C72.53875,309.1295 68.48075,292.057 76.75975,281.014 C85.03875,269.9715 106.20575,269.9715 111.37225,292.138 C116.53875,314.305 79.92425,350.6215 79.92425,350.6215" id="Fill-11" fill="#F16646"></path>
                    <path d="M195.3134,330.54045 C195.3134,330.54045 216.7044,282.42995 215.6214,252.36745 C214.5389,222.30495 196.5879,236.00045 195.3134,244.90245 C195.3134,244.90245 195.3784,216.44995 185.9589,206.37745 C176.5389,196.30495 160.6829,224.42995 169.8609,257.11745 C179.0389,289.80495 195.3134,330.54045 195.3134,330.54045" id="Fill-13" fill="#F16646"></path>
                    <path d="M169.539,225.5966 L163.7475,225.5966 L134.039,225.5966 L134.039,241.5551 L166.2265,241.5551 C166.2265,241.5551 169.243,240.6296 170.539,235.0551 C171.835,229.4801 169.539,225.5966 169.539,225.5966" id="Fill-15" fill="#F0FFF0"></path>
                    <path d="M193.00995,245.54435 C197.26645,246.92485 200.03895,251.02785 199.71145,255.49085 C198.98645,265.35935 198.52695,277.39685 198.24895,290.05735 L198.24895,290.12735 C198.24395,290.19235 198.24395,290.25735 198.24395,290.32235 C198.23895,290.43235 198.23895,290.54235 198.23895,290.65735 C198.03395,299.92735 197.93395,309.51735 197.89395,318.81735 C197.88895,319.59735 197.88895,320.37235 197.88895,321.14735 C197.88395,321.51235 197.88395,321.87735 197.88395,322.24235 C197.84895,334.40235 197.91895,345.92735 198.01395,355.43235 C183.40395,368.88235 165.25395,376.84735 145.58895,376.84735 C132.24895,376.84735 119.60395,373.18235 108.28895,366.62235 C104.66895,366.96735 102.71395,366.39735 102.71395,366.39735 C101.57395,366.52735 100.45895,366.51235 99.37395,366.34735 C99.33895,366.34235 99.30895,366.33735 99.27395,366.33235 C99.08895,364.41235 98.89895,362.33735 98.69895,360.13235 C96.28895,333.07235 93.37395,286.29235 98.55895,257.11735 C99.02895,254.47735 100.80895,252.26235 103.29395,251.25235 L127.36895,241.44235 L131.18395,239.88735 L164.83895,236.12785 C164.83895,236.12785 166.67895,236.75285 169.53895,237.72235 C175.42245,239.71135 185.62795,243.15035 193.00995,245.54435" id="Fill-17" fill="#43AC49"></path>
                    <path d="M169.861,211.4584 C169.861,211.4584 165.4795,223.7919 164.837,236.1249 C164.837,236.1249 148.4155,257.5084 131.182,239.8869 C131.182,239.8869 147.5275,218.7919 169.861,211.4584" id="Fill-19" fill="#D38D4B"></path>
                    <path d="M127.36885,241.44255 C130.75385,246.91755 144.44885,264.27255 169.53885,237.72255" id="Stroke-21" stroke="#2A8742"></path>
                    <line x1="146.96505" y1="251.90935" x2="146.96505" y2="376.84735" id="Stroke-23" stroke="#2A8742"></line>
                    <path d="M145.78385,322.34755 C145.78385,322.34755 145.79885,322.37255 145.82885,322.42255 C146.13385,322.89755 147.87885,325.63255 150.61385,329.52255 C157.71385,339.61755 171.51385,357.51755 184.19385,364.02755 C184.19885,364.03255 184.20385,364.03255 184.20885,364.03255 C185.38385,364.63755 186.54885,365.14255 187.69885,365.53255 C188.96885,365.96755 190.21885,366.26255 191.44385,366.39755 C192.58385,366.52755 193.69885,366.51255 194.78385,366.34755 C194.81885,366.34255 194.84885,366.33755 194.88385,366.33255 C209.04885,364.10755 216.32385,352.61255 217.28385,335.90755 L217.28385,335.90255 C217.64885,329.69755 217.13385,322.77755 215.78385,315.34755 C210.78385,287.84755 199.71135,255.49055 199.71135,255.49055 L188.29885,328.71755 L188.28385,328.84755 L171.30385,315.84255 L164.78385,310.84755 C164.07885,310.84755 163.03385,311.20255 161.78385,311.79255 C161.65885,311.85255 161.53385,311.91255 161.40385,311.97755 C157.07885,314.11255 150.64885,318.72755 147.56385,321.01255 C146.45885,321.82755 145.78385,322.34755 145.78385,322.34755" id="Fill-25" fill="#43AC49"></path>
                    <path d="M149.84615,287.85245 C155.50765,289.17845 160.56965,310.08045 160.56965,310.08045 C162.45515,317.17495 154.73215,326.36095 149.73915,323.01295 C144.74615,319.66495 146.68365,310.54445 146.68365,310.54445 C146.68365,310.54445 144.18465,286.52645 149.84615,287.85245" id="Fill-27" fill="#E59E4D"></path>
                    <path d="M145.78385,322.34755 C145.78385,322.34755 147.59385,325.22755 150.61385,329.52255 C156.90385,324.41755 166.83885,318.45255 171.30385,315.84255 L164.78385,310.84755 C160.78385,310.84755 145.78385,322.34755 145.78385,322.34755" id="Fill-29" fill="#43AC49"></path>
                    <path d="M145.78385,322.34755 C145.78385,322.34755 172.78385,368.09755 194.78385,366.34755" id="Stroke-31" stroke="#2A8742"></path>
                    <path d="M196.1706,285.2443 C196.1706,285.2443 192.9506,321.5143 188.2841,328.8478 L193.9506,333.0143 C193.9506,333.0143 196.2236,290.8078 196.1706,285.2443" id="Fill-33" fill="#2A8742"></path>
                    <path d="M194.0378,366.70135 C190.7393,366.70135 187.3908,365.87685 184.0838,364.25185 C175.3423,359.95635 166.6483,350.77585 160.8943,343.83035 C154.6673,336.31385 150.4448,329.72235 150.4033,329.65685 L150.3103,329.51185 L150.4133,329.37335 C156.2968,321.45785 171.0653,315.66685 171.2138,315.60935 L171.3438,315.55885 L193.7213,332.52635 C193.9083,328.13085 195.3353,294.79385 195.9213,285.22885 C196.5458,275.02535 199.4348,255.64835 199.4643,255.45335 L199.6118,254.46585 L199.9468,255.40685 C204.1133,267.11485 208.4418,281.74635 211.5263,294.54685 C215.6423,311.63285 217.7198,325.93685 217.5338,335.91185 C217.2013,353.75235 207.3198,366.70135 194.0408,366.70135 L194.0378,366.70135 Z" id="Fill-35" fill="#E0EFDF"></path>
                    <path d="M199.5124,253.4406 L199.2169,255.4166 C199.1879,255.6116 196.2969,274.9996 195.6714,285.2136 C195.1034,294.4911 193.7439,326.1246 193.4914,332.0386 L171.6059,315.4441 L171.3834,315.2751 L171.1234,315.3766 C170.5139,315.6126 156.1384,321.2511 150.2124,329.2241 L150.0069,329.5011 L150.1924,329.7916 C150.3604,330.0551 167.1969,356.2326 183.9734,364.4761 C187.3159,366.1186 190.7019,366.9511 194.0379,366.9511 C200.4224,366.9511 206.3374,363.8691 210.6919,358.2726 C215.1019,352.6051 217.6204,344.6656 217.7839,335.9171 C217.9704,325.9201 215.8904,311.5946 211.7689,294.4881 C208.6829,281.6796 204.3514,267.0381 200.1824,255.3231 L199.5124,253.4406 Z M199.7114,255.4906 C206.7169,275.1766 217.7059,313.3051 217.2839,335.9076 C216.9464,354.0031 206.7399,366.4511 194.0379,366.4511 C190.8739,366.4511 187.5529,365.6781 184.1939,364.0276 C167.3489,355.7501 150.6139,329.5226 150.6139,329.5226 C156.5224,321.5736 171.3039,315.8426 171.3039,315.8426 L193.9504,333.0141 C193.9504,333.0141 195.5389,295.5551 196.1704,285.2441 C196.8019,274.9336 199.7114,255.4906 199.7114,255.4906 L199.7114,255.4906 Z" id="Fill-37" fill="#2A8742"></path>
                    <path d="M199.71135,255.49065 C199.71135,255.49065 196.53885,271.63815 196.28385,281.01415 C195.85785,296.67865 193.95085,333.01415 193.95085,333.01415 L164.78385,310.84765 C164.78385,310.84765 159.66385,311.46115 147.07835,321.37215" id="Stroke-39" stroke="#2A8742"></path>
                    <line x1="174.50725" y1="318.2958" x2="208.26275" y2="344.3718" id="Stroke-41" stroke="#2A8742"></line>
                    <path d="M148.37395,322.34755 C148.37395,322.34755 148.35895,322.37255 148.32895,322.42255 C148.02395,322.89755 146.27895,325.63255 143.54395,329.52255 C136.44395,339.61755 122.64395,357.51755 109.96395,364.02755 C109.95895,364.03255 109.95395,364.03255 109.94895,364.03255 C108.77395,364.63755 107.60895,365.14255 106.45895,365.53255 C105.18895,365.96755 103.93895,366.26255 102.71395,366.39755 C101.57395,366.52755 100.45895,366.51255 99.37395,366.34755 C99.33895,366.34255 99.30895,366.33755 99.27395,366.33255 C85.10895,364.10755 77.83395,352.61255 76.87395,335.90755 L76.87395,335.90255 C76.50895,329.69755 77.02395,322.77755 78.37395,315.34755 C83.37395,287.84755 98.62245,256.47155 98.62245,256.47155 L105.85895,328.71755 L105.87395,328.84755 L122.85395,315.84255 L129.37395,310.84755 C130.07895,310.84755 131.12395,311.20255 132.37395,311.79255 C132.49895,311.85255 132.62395,311.91255 132.75395,311.97755 C137.07895,314.11255 143.50895,318.72755 146.59395,321.01255 C147.69895,321.82755 148.37395,322.34755 148.37395,322.34755" id="Fill-43" fill="#43AC49"></path>
                    <path d="M144.3117,287.85245 C138.6502,289.17845 133.5882,310.08045 133.5882,310.08045 C131.7027,317.17495 139.4257,326.36095 144.4187,323.01295 C149.4117,319.66495 147.4742,310.54445 147.4742,310.54445 C147.4742,310.54445 149.9732,286.52645 144.3117,287.85245" id="Fill-45" fill="#E59E4D"></path>
                    <path d="M148.37395,322.34755 C148.37395,322.34755 146.56395,325.22755 143.54395,329.52255 C137.25395,324.41755 127.31895,318.45255 122.85395,315.84255 L129.37395,310.84755 C133.37395,310.84755 148.37395,322.34755 148.37395,322.34755" id="Fill-47" fill="#43AC49"></path>
                    <path d="M97.98725,285.2443 C97.98725,285.2443 101.20725,321.5143 105.87375,328.8478 L100.20725,333.0143 C100.20725,333.0143 97.93425,290.8078 97.98725,285.2443" id="Fill-49" fill="#2A8742"></path>
                    <path d="M100.12005,366.70135 C86.83855,366.70135 76.95655,353.75285 76.62405,335.91185 C76.22555,314.57935 85.18055,281.86535 98.40055,256.35685 L98.95405,255.28785 L98.87155,256.48885 C98.85905,256.67335 97.61355,275.05285 98.23655,285.22885 C98.82255,294.79385 100.24955,328.13085 100.43655,332.52635 L122.81405,315.55885 L122.94405,315.60935 C123.09255,315.66685 137.86105,321.45785 143.74455,329.37335 L143.84755,329.51185 L143.75455,329.65685 C143.71305,329.72235 139.49055,336.31385 133.26305,343.83035 C127.50905,350.77585 118.81555,359.95635 110.07405,364.25185 C106.76605,365.87735 103.41755,366.70135 100.12005,366.70135" id="Fill-51" fill="#E0EFDF"></path>
                    <path d="M99.2858,254.10465 L98.1783,256.24115 C91.9313,268.29565 86.3318,282.64315 82.4118,296.64115 C78.2593,311.46965 76.1713,325.05115 76.3738,335.91715 C76.5373,344.66565 79.0558,352.60465 83.4658,358.27215 C87.8208,363.86915 93.7353,366.95115 100.1198,366.95115 C103.4558,366.95115 106.8418,366.11865 110.1843,364.47615 C126.9608,356.23265 143.7973,330.05465 143.9653,329.79165 L144.1508,329.50065 L143.9453,329.22415 C138.0188,321.25115 123.6438,315.61265 123.0348,315.37615 L122.7743,315.27515 L122.5518,315.44415 L100.6663,332.03865 C100.4133,326.12465 99.0548,294.49115 98.4863,285.21365 C97.8643,275.05365 99.1088,256.69015 99.1208,256.50565 L99.2858,254.10465 Z M98.6223,256.47165 C98.6223,256.47165 97.3558,274.93365 97.9873,285.24415 C98.6188,295.55465 100.2073,333.01415 100.2073,333.01415 L122.8538,315.84265 C122.8538,315.84265 137.6358,321.57315 143.5438,329.52265 C143.5438,329.52265 126.8088,355.75015 109.9638,364.02765 C106.6048,365.67765 103.2838,366.45115 100.1198,366.45115 C87.4178,366.45115 77.2118,354.00315 76.8738,335.90715 C76.4523,313.30465 86.0983,280.63815 98.6223,256.47165 L98.6223,256.47165 Z" id="Fill-53" fill="#2A8742"></path>
                    <path d="M98.62225,256.4716 C98.62225,256.4716 97.61875,271.6381 97.87375,281.0141 C98.29975,296.6786 100.20725,333.0141 100.20725,333.0141 L129.37375,310.8476 C129.37375,310.8476 136.79225,312.6401 148.37375,322.3476 C148.37375,322.3476 121.37375,368.0976 99.37375,366.3476" id="Stroke-55" stroke="#2A8742"></path>
                    <line x1="119.65055" y1="318.2958" x2="85.89505" y2="344.3718" id="Stroke-57" stroke="#2A8742"></line>
                    <path d="M142.44845,241.48675 L146.22645,252.08275 C146.22645,252.08275 140.66395,252.61725 134.97645,249.30475 L142.44845,241.48675 Z" id="Fill-59" fill="#A7D5A1"></path>
                    <path d="M155.039,241.05485 L146.965,251.90935 C146.965,251.90935 155.914,250.80485 161.289,245.42985 C166.664,240.05485 155.039,241.05485 155.039,241.05485" id="Fill-61" fill="#A7D5A1"></path>
                    <path d="M171.039,226.55485 C171.527,228.30835 174.5075,239.39885 174.5075,239.39885 C172.9755,245.49335 164.784,253.55485 164.784,253.55485 L155.039,241.05485 C155.039,241.05485 173.039,230.55485 169.539,226.55485 L169.539,225.59635 C169.539,225.59635 170.8085,225.72535 171.039,226.55485" id="Fill-63" fill="#FFFFFF"></path>
                    <path d="M127.1098,226.28875 C126.5443,228.01875 123.0733,238.96575 123.0733,238.96575 C124.3318,245.12225 132.1568,253.54025 132.1568,253.54025 L142.4483,241.48675 C142.4483,241.48675 124.9333,230.19575 128.6083,226.35575 L128.6513,225.39825 C128.6513,225.39825 127.3773,225.47075 127.1098,226.28875" id="Fill-65" fill="#FFFFFF"></path>
                    <path d="M159.16545,120.7599 C159.82395,118.9794 159.38895,116.9779 158.11845,115.5674 C154.73095,111.8059 147.41645,103.6664 145.34345,101.2174 C142.61745,97.9959 147.03545,95.1599 152.83245,86.7039 C158.62995,78.2474 162.10745,63.3024 155.66695,59.6599 C149.22745,56.0169 144.96495,67.6554 140.53245,75.4109 C136.10045,83.1669 132.76945,84.6969 126.20995,80.1554 C119.65095,75.6139 122.46345,62.7344 125.63945,56.8754 C128.81595,51.0164 133.86345,42.6844 133.25195,38.6384 C132.64045,34.5919 128.55395,31.9219 122.59695,36.1974 C116.63995,40.4734 109.19545,53.6464 105.56245,59.7889 C101.92945,65.9309 93.80145,63.7234 93.22395,54.1614 C92.64595,44.5989 98.77045,35.2594 101.65395,29.2409 C104.53745,23.2234 95.61445,18.0069 85.16545,27.3529 C74.71645,36.6984 61.78345,62.5134 82.25145,79.2954 C101.35645,94.9594 137.59045,115.0879 151.59995,123.4634 C154.35445,125.1104 157.94395,123.9024 159.10795,120.9114 C159.12745,120.8614 159.14645,120.8109 159.16545,120.7599" id="Fill-67" fill="#A85526"></path>
                    <path d="M3.78315,216.7919 C3.95615,217.2359 4.14065,217.6799 4.33115,218.1184 C19.21165,252.5864 75.38915,258.3309 120.50415,244.2519 C166.18465,229.9944 203.41515,190.6989 206.85265,155.2619 C210.16915,121.0594 191.03765,110.8504 175.16515,108.7854 C160.08815,106.8304 152.71715,110.3719 133.17615,126.2159 C117.97815,138.5414 100.54215,147.5104 76.15065,152.3779 C69.18315,153.7679 61.64465,154.8234 53.43165,155.5274 C16.46015,158.6939 -10.20935,181.1419 3.78315,216.7919" id="Fill-69" fill="#E59E4D"></path>
                    <path d="M3.78315,216.7919 C3.95615,217.2359 4.14065,217.6799 4.33115,218.1184 C75.33715,219.3644 76.43315,161.6814 76.15065,152.3779 C69.18315,153.7679 61.64465,154.8234 53.43165,155.5274 C16.46015,158.6939 -10.20935,181.1419 3.78315,216.7919" id="Fill-71" fill="#A85526"></path>
                    <g id="Group-75" transform="translate(176.000000, 0.347500)">
                        <mask id="mask-2" fill="white">
                            <use xlink:href="#path-1"></use>
                        </mask>
                        <g id="Clip-74"></g>
                        <path d="M0.78215,124.9139 C0.00665,122.5819 0.65515,120.0114 2.35915,118.2409 C6.90315,113.5194 16.71515,103.3024 19.50215,100.2224 C23.16765,96.1714 17.57315,92.3129 10.43515,81.1239 C3.29715,69.9349 -0.56085,50.4509 7.92715,46.0139 C16.41565,41.5769 21.43115,56.8174 26.83265,67.0414 C32.23415,77.2659 36.47865,79.3879 45.15915,73.7934 C53.84065,68.1989 50.75365,51.4154 46.89565,43.6989 C43.03765,35.9824 36.86415,24.9864 37.82865,19.7779 C38.79315,14.5694 44.19515,11.2894 51.71865,17.0769 C59.24215,22.8644 68.30915,40.2264 72.74615,48.3289 C77.18315,56.4314 87.79315,53.9234 88.95065,41.5769 C90.10815,29.2304 82.58465,16.8839 79.11215,8.9749 C75.63965,1.0654 87.40715,-5.3011 100.52565,7.2384 C113.64365,19.7779 129.26965,53.7304 102.06865,74.5649 C76.68015,94.0119 28.93865,118.5004 10.45465,128.7364 C6.82015,130.7484 2.22765,129.0314 0.85015,125.1119 C0.82715,125.0469 0.80415,124.9809 0.78215,124.9139" id="Fill-73" fill="#A85526" mask="url(#mask-2)"></path>
                    </g>
                    <path d="M201.8903,131.57755 C201.8903,131.57755 211.2658,125.52255 235.8768,135.09355 C235.8768,135.09355 225.7198,153.84455 205.4063,152.86805 C185.0923,151.89105 201.8903,131.57755 201.8903,131.57755" id="Fill-76" fill="#E59E4D"></path>
                    <path d="M201.695,142.5158 C201.695,142.5158 204.234,131.1868 224.157,137.6323 C224.157,137.6323 212.4375,154.2348 201.695,142.5158" id="Fill-78" fill="#A85526"></path>
                    <path d="M103.34415,138.77065 C103.34415,148.90165 109.92915,157.11415 118.05265,157.11415 C126.17565,157.11415 132.76065,148.90165 132.76065,138.77065 C132.76065,128.64015 126.17565,120.42715 118.05265,120.42715 C109.92915,120.42715 103.34415,128.64015 103.34415,138.77065" id="Fill-80" fill="#FFFFFF"></path>
                    <path d="M111.76825,140.26235 C111.76825,145.21435 114.99925,149.22835 118.98525,149.22835 C122.97075,149.22835 126.20225,145.21435 126.20225,140.26235 C126.20225,135.31035 122.97075,131.29585 118.98525,131.29585 C114.99925,131.29585 111.76825,135.31035 111.76825,140.26235" id="Fill-82" fill="#7D4133"></path>
                    <path d="M122.98845,114.5773 L122.98845,114.5773 C122.69445,115.2988 121.86695,115.6528 121.15045,115.3458 C118.95845,114.4063 114.19195,113.0433 109.00695,115.8693 C108.18845,116.3153 107.16145,115.9613 106.74445,115.1283 C105.92245,113.4838 106.35145,111.4763 107.80195,110.3473 C110.31245,108.3938 114.87895,106.4538 121.38095,109.9983 C123.00395,110.8828 123.68595,112.8653 122.98845,114.5773" id="Fill-84" fill="#A85526"></path>
                    <path d="M159.6452,114.24185 L159.6452,114.24185 C159.6137,115.02085 160.2202,115.68535 160.9997,115.70285 C163.3837,115.75585 168.2867,116.49035 171.8347,121.21135 C172.3947,121.95585 173.4762,122.05985 174.2007,121.47385 C175.6302,120.31785 176.0722,118.31335 175.2192,116.68435 C173.7437,113.86635 170.3917,110.20885 163.0052,110.74035 C161.1617,110.87285 159.7197,112.39485 159.6452,114.24185" id="Fill-86" fill="#A85526"></path>
                    <path d="M127.09295,151.83415 C126.09245,166.15365 134.57295,177.77465 146.03545,177.791167 C157.49795,177.80715 167.60145,166.21215 168.60195,151.89315 C169.60295,137.57415 161.12195,125.95315 149.65945,125.936632 C138.19745,125.92015 128.09395,137.51515 127.09295,151.83415" id="Fill-88" fill="#FFFFFF"></path>
                    <path d="M60.6669,212.5602 C60.6669,212.5602 92.0304,211.5032 108.9459,221.0177" id="Stroke-90" stroke="#A85526" stroke-width="5.191" stroke-linecap="round" stroke-linejoin="round"></path>
                    <path d="M142.32805,150.26285 C142.32805,155.21435 145.55905,159.22885 149.54505,159.22885 C153.53105,159.22885 156.76205,155.21435 156.76205,150.26285 C156.76205,145.31085 153.53105,141.29635 149.54505,141.29635 C145.55905,141.29635 142.32805,145.31085 142.32805,150.26285" id="Fill-92" fill="#7D4133"></path>
                    <path d="M152.70575,147.6171 C152.70575,149.0781 151.99825,150.2631 151.12525,150.2631 C150.25275,150.2631 149.54525,149.0781 149.54525,147.6171 C149.54525,146.1561 150.25275,144.9716 151.12525,144.9716 C151.99825,144.9716 152.70575,146.1561 152.70575,147.6171" id="Fill-94" fill="#FFFFFF"></path>
                    <path d="M150.0307,151.81315 C150.0307,152.41615 149.5417,152.90465 148.9392,152.90465 C148.3362,152.90465 147.8477,152.41615 147.8477,151.81315 C147.8477,151.21015 148.3362,150.72165 148.9392,150.72165 C149.5417,150.72165 150.0307,151.21015 150.0307,151.81315" id="Fill-96" fill="#FFFFFF"></path>
                    <path d="M122.3693,137.8881 C122.3693,139.3491 121.6618,140.5341 120.7888,140.5341 C119.9163,140.5341 119.2088,139.3491 119.2088,137.8881 C119.2088,136.4271 119.9163,135.2426 120.7888,135.2426 C121.6618,135.2426 122.3693,136.4271 122.3693,137.8881" id="Fill-98" fill="#FFFFFF"></path>
                    <path d="M119.6945,142.08415 C119.6945,142.68715 119.2055,143.17565 118.6025,143.17565 C118,143.17565 117.511,142.68715 117.511,142.08415 C117.511,141.48115 118,140.99265 118.6025,140.99265 C119.2055,140.99265 119.6945,141.48115 119.6945,142.08415" id="Fill-100" fill="#FFFFFF"></path>
                </g>
            </g>
        </g>
    </g>
</svg>